8796454846494;8796461793310;8796843901547;mediaContainer;;false
8796454912030;8796461826078;8796843934315;mediaContainer;;false
8796454977566;8796461858846;8796843967083;mediaContainer;;false
8796455043102;8796461891614;8796843999851;mediaContainer;;false
8796455108638;8796461924382;8796844032619;mediaContainer;;false
8796455174174;8796461957150;8796844065387;mediaContainer;;false
8796455305246;8796462022686;8796844130923;mediaContainer;;false
8796455370782;8796462055454;8796844163691;mediaContainer;;false
8796455436318;8796462088222;8796844196459;mediaContainer;;false
8796455501854;8796462120990;8796844229227;mediaContainer;;false
8796455567390;8796462153758;8796844261995;mediaContainer;;false
8796455632926;8796462186526;8796844294763;mediaContainer;;false
